…
<img src="man/figures/README-plot-latest-1.png" width="100%" />

## Read functions for BSRTO files

``` r
read_hpb_vector(list.files(bs_example("hpb"), "\\.hpb$", full.names = TRUE))
#> # A tibble: 1 x 4
#>   file                                  date_time           atm_pres_mbar temp_c
#>   <chr>                                 <dttm>                      <dbl>  <dbl>
#> 1 C:/Users/dunningtond/Documents/R/win~ 2019-08-28 20:30:37          1004     17
read_icl(bs_example("icl/SAF2564_20191010_19.txt"))
#> # A tibble: 62 x 416
#>    Time     Comment `Temperature [C~ `Humidity [%]` `Sequence #` `Data Points`
#>    <time>   <chr>              <dbl>          <dbl>        <int>         <int>
#>  1 19:04:39 Time A~             -1.6           34.3           15           410
#>  2 19:04:40 <NA>                -1.6           34.3           16           410
#>  3 19:04:41 <NA>                -1.6           34.3           17           410
#>  4 19:04:42 <NA>                -1.7           34.1           18           410
#>  5 19:04:43 <NA>                -1.6           34.1           19           410
#>  6 19:04:44 <NA>                -1.6           34.1           20           410
#>  7 19:04:45 <NA>                -1.6           34.1           21           410
#>  8 19:04:46 <NA>                -1.6           34.1           22           410
#>  9 19:04:47 <NA>                -1.6           34.1           23           410
#> 10 19:04:48 <NA>                -1.6           34.1           24           410
#> # ... with 52 more rows, and 410 more variables: `0` <int>, `15.63` <int>,
#> #   `31.25` <int>, `46.88` <int>, `62.5` <int>, `78.13` <int>, `93.75` <int>,
#> #   `109.38` <int>, `125` <int>, `140.63` <int>, `156.25` <int>,
#> #   `171.88` <int>, `187.5` <int>, `203.13` <int>, `218.75` <int>,
#> #   `234.38` <int>, `250` <int>, `265.63` <int>, `281.25` <int>,
#> #   `296.88` <int>, `312.5` <int>, `328.13` <int>, `343.75` <int>,
#> #   `359.38` <int>, `375` <int>, `390.63` <int>, `406.25` <int>,
#> #   `421.88` <int>, `437.5` <int>, `453.13` <int>, `468.75` <int>,
#> #   `484.38` <int>, `500` <int>, `515.63` <int>, `531.25` <int>,
…
#>  1 2019-10-10 00:00:10       -1.10         2.58     45.2   7.48     31.8
#>  2 2019-10-10 02:00:10       -1.14         2.58     45.8   7.49     31.9
#>  3 2019-10-10 04:00:10       -1.22         2.58     46.4   7.22     32.0
#>  4 2019-10-10 06:00:10       -1.16         2.58     46.1   7.42     32.0
#>  5 2019-10-10 08:00:10       -1.11         2.59     45.2   7.42     32.0
#>  6 2019-10-10 10:00:10       -1.09         2.58     44.7   7.56     31.9
#>  7 2019-10-10 12:00:10       -1.17         2.58     44.9   7.48     32.0
#>  8 2019-10-10 14:00:10       -1.20         2.58     45.3   7.24     32.0
#>  9 2019-10-10 16:00:10       -1.12         2.58     45.6   7.51     31.8
#> 10 2019-10-10 18:00:10       -1.08         2.57     45.4   7.50     31.7
#> 11 2019-10-10 20:00:10       -1.06         2.57     44.9   7.55     31.7
#> 12 2019-10-10 22:00:10       -1.12         2.58     44.6   7.52     31.8
#> # ... with 1 more variable: sound_speed <dbl>
read_odf(bs_example("odf/CTD_98911_10P_11_DN.ODF"))
#> # A tibble: 562 x 6
#>    PRES      TEMP  COND  PSAL    POTM  SIGP
#>    <chr>    <dbl> <dbl> <dbl>   <dbl> <dbl>
#>  1 0.4210  0.509   2.67  31.4  0.509   25.2
#>  2 0.8000 -0.134   2.68  32.1 -0.134   25.8
#>  3 0.9890 -0.229   2.68  32.2 -0.229   25.9
#>  4 1.0840 -0.0914  2.68  32.1 -0.0914  25.8
#>  5 1.1790  0.317   2.67  31.6  0.317   25.4
#>  6 1.3680  0.222   2.67  31.7  0.222   25.4
#>  7 1.3680  0.174   2.67  31.8  0.174   25.5
#>  8 1.3680 -0.211   2.67  32.1 -0.211   25.8
#>  9 1.4630 -0.193   2.66  32.0 -0.193   25.7
#> 10 1.5580 -0.622   2.66  32.4 -0.622   26.0
#> # ... with 552 more rows
…
